0 verbose cli [
0 verbose cli   'D:\\Distrib\\node.exe',
0 verbose cli   'D:\\Distrib\\node_modules\\npm\\bin\\npm-cli.js',
0 verbose cli   'start'
0 verbose cli ]
1 info using npm@7.0.8
2 info using node@v15.1.0
3 timing config:load:defaults Completed in 3ms
4 timing config:load:file:D:\Distrib\node_modules\npm\npmrc Completed in 3ms
5 timing config:load:builtin Completed in 3ms
6 timing config:load:cli Completed in 3ms
7 timing config:load:env Completed in 1ms
8 timing config:load:file:D:\SPD-University\Node practice\pract\login\.npmrc Completed in 0ms
9 timing config:load:project Completed in 1ms
10 timing config:load:file:C:\Users\Natali\.npmrc Completed in 1ms
11 timing config:load:user Completed in 2ms
12 timing config:load:file:C:\Users\Natali\AppData\Roaming\npm\etc\npmrc Completed in 1ms
13 timing config:load:global Completed in 1ms
14 timing config:load:cafile Completed in 0ms
15 timing config:load:validate Completed in 1ms
16 timing config:load:setUserAgent Completed in 1ms
17 timing config:load:setEnvs Completed in 2ms
18 timing config:load Completed in 18ms
19 verbose npm-session 774c68324ccd6880
20 timing npm:load Completed in 38ms
21 timing command:run-script Completed in 59489ms
22 timing command:start Completed in 59496ms
23 verbose stack Error: command failed
23 verbose stack     at ChildProcess.<anonymous> (D:\Distrib\node_modules\npm\node_modules\@npmcli\promise-spawn\index.js:64:27)
23 verbose stack     at ChildProcess.emit (node:events:327:20)
23 verbose stack     at maybeClose (node:internal/child_process:1055:16)
23 verbose stack     at Process.ChildProcess._handle.onexit (node:internal/child_process:288:5)
24 verbose pkgid login@0.0.0
25 verbose cwd D:\SPD-University\Node practice\pract\login
26 verbose Windows_NT 10.0.19041
27 verbose argv "D:\\Distrib\\node.exe" "D:\\Distrib\\node_modules\\npm\\bin\\npm-cli.js" "start"
28 verbose node v15.1.0
29 verbose npm  v7.0.8
30 error path D:\SPD-University\Node practice\pract\login
31 error command failed
32 error signal SIGINT
33 error command C:\WINDOWS\system32\cmd.exe /d /s /c "node ./bin/www"
34 verbose exit 1
